{
  "images" : [
    {
      "filename" : "UnBasicCourses.png",
      "idiom" : "universal",
      "scale" : "1x"
    },
    {
      "filename" : "main_bottom_feed@2x.png",
      "idiom" : "universal",
      "scale" : "2x"
    },
    {
      "filename" : "main_bottom_feed@3x.png",
      "idiom" : "universal",
      "scale" : "3x"
    }
  ],
  "info" : {
    "author" : "xcode",
    "version" : 1
  }
}
